Journal (reproducible report)
…
5.1 Getting Data from an Arbitrary API

We need to get data via an API. For this example, I will be fetching data from a Brazilian API that provides information about car prices sold in Brazil

# import the httr library
library(httr)

# request access the the Brazilian car API
response <- GET("https://parallelum.com.br/fipe/api/v1/carros/marcas/39/modelos") %>%
  # Go the the folder containing the Mercedes-Benz models
  content(as = "text") %>% fromJSON() %>% .$modelos %>% as.tibble() %>% select(nome) %>%     rename("Mercedes Model" = nome)

print(response, n = 10)

## # A tibble: 445 x 1
##    `Mercedes Model`               
##    <chr>                          
##  1 180-D Pick-Up/Furgão 2.4 Diesel
##  2 180-D Van 2.4 Diesel           
##  3 190-E 2.3                      
##  4 230-E 2.3                      
##  5 260-E 2.6                      
##  6 300-D 3.0 Diesel               
##  7 300-E 3.0                      
##  8 300-SE 3.0/3.2                 
##  9 300-SL 3.0                     
## 10 300-TE Wagon 3.0               
## # … with 435 more rows
…
